﻿"","Quarterly growth (%)","Through the year (%)"
"Jun-12","0.8","4.2"
"Sep-12","0.6","3.5"
"Dec-12","0.6","2.9"
"Mar-13","0.3","2.2"
"Jun-13","0.5","1.9"
"Sep-13","0.8","2.1"
"Dec-13","0.8","2.4"
"Mar-14","0.7","2.8"
"Jun-14","0.6","2.9"
"Sep-14","0.5","2.6"
"Dec-14","0.4","2.1"
"Mar-15","0.8","2.3"
"Jun-15","0.2","1.9"
"Sep-15","1.1","2.5"
"Dec-15","0.6","2.7"
"Mar-16","0.9","2.7"
"Jun-16","0.7","3.3"
"Sep-16","0.1","2.3"
"Dec-16","1.0","2.8"
"Mar-17","0.3","2.2"
"Jun-17","0.7","2.2"
"Sep-17","0.9","3.0"
"Dec-17","0.5","2.4"
"Mar-18","0.9","3.1"
"Jun-18","0.9","3.3"
"Sep-18","0.2","2.6"
"Dec-18","0.1","2.2"
"Mar-19","0.4","1.7"
"Jun-19","0.8","1.6"
"Sep-19","0.5","1.8"
"Dec-19","0.6","2.3"
"Mar-20","-0.3","1.6"
"Jun-20","-7.0","-6.3"

"Source: Australian Bureau of Statistics, undefined June 2020"